{
  "server_name": "server",
  "parent_dir": "unsplash_photo_search_server_refined",
  "report_name": "unsplash_photo_search_server_refined-server",
  "server_path": "workspace\\refinement\\unsplash_photo_search_server_refined\\server.py",
  "timestamp": "2025-07-01T18:40:22.261581",
  "tools": [
    {
      "name": "search_photos",
      "description": "\n    在Unsplash平台根据关键词、分页、排序、颜色和图片方向等条件搜索图片。\n\n    Args:\n        query: 搜索关键词 (必填)。\n        page: 页码，必须大于等于1，默认为1 (可选)。\n        per_page: 每页结果数，1-30之间，默认为10 (可选)。\n        order_by: 排序方式，可选'relevant'或'latest'，默认为'relevant' (可选)。\n        color: 颜色过滤器，可选值包括'red', 'orange', 'yellow', 'green', 'teal', \n               'blue', 'purple', 'magenta', 'black', 'white', 'gray' (可选)。\n        orientation: 图片方向，可选'landscape', 'portrait', 'squarish' (可选)。\n\n    Returns:\n        包含图片ID、描述、多尺寸URL、宽度和高度等信息的JSON字符串。\n\n    Raises:\n        ValueError: 如果参数验证失败。\n        httpx.HTTPStatusError: 如果API请求失败。\n    \n    示例:\n        search_photos(query=\"nature\", page=1, per_page=5, order_by=\"latest\", \n                     color=\"blue\", orientation=\"landscape\")\n    ",
      "args_schema": {
        "properties": {
          "query": {
            "title": "Query",
            "type": "string"
          },
          "page": {
            "default": 1,
            "title": "Page",
            "type": "integer"
          },
          "per_page": {
            "default": 10,
            "title": "Per Page",
            "type": "integer"
          },
          "order_by": {
            "default": "relevant",
            "title": "Order By",
            "type": "string"
          },
          "color": {
            "default": null,
            "title": "Color",
            "type": "string"
          },
          "orientation": {
            "default": null,
            "title": "Orientation",
            "type": "string"
          }
        },
        "required": [
          "query"
        ],
        "title": "search_photosArguments",
        "type": "object"
      }
    }
  ],
  "test_results": {
    "search_photos": [
      {
        "case_name": "Basic Search with Default Parameters",
        "purpose": "验证使用默认参数的基本搜索功能是否正常工作",
        "args": {
          "query": "nature"
        },
        "response": {
          "result": "{\"total\": 10000, \"total_pages\": 1000, \"current_page\": 1, \"per_page\": 10, \"results\": [{\"id\": \"IicyiaPYGGI\", \"description\": \"orange flowers\", \"urls\": {\"raw\": \"https://images.unsplash.com/photo-1465146344425-f00d5f5c8f07?ixid=M3w3NjQwNzV8MHwxfHNlYXJjaHwxfHxuYXR1cmV8ZW58MHx8fHwxNzUxMzU3MTA1fDA&ixlib=rb-4.1.0\", \"full\": \"https://images.unsplash.com/photo-1465146344425-f00d5f5c8f07?crop=entropy&cs=srgb&fm=jpg&ixid=M3w3NjQwNzV8MHwxfHNlYXJjaHwxfHxuYXR1cmV8ZW58MHx8fHwxNzUxMzU3MTA1fDA&ixlib=rb-4.1.0&q=85\", \"regular\": \"https://images.unsplash.com/photo-1465146344425-f00d5f5c8f07?crop=entropy&cs=tinysrgb&fit=max&fm=jpg&ixid=M3w3NjQwNzV8MHwxfHNlYXJjaHwxfHxuYXR1cmV8ZW58MHx8fHwxNzUxMzU3MTA1fDA&ixlib=rb-4.1.0&q=80&w=1080\", \"small\": \"https://images.unsplash.com/photo-1465146344425-f00d5f5c8f07?crop=entropy&...[截断]，共计13110字符，剩余12310字符"
        },
        "execution_time": 0.678469181060791,
        "is_functional_test": true
      },
      {
        "case_name": "Search with Custom Page and PerPage",
        "purpose": "验证分页参数page和per_page是否能正确控制结果分页",
        "args": {
          "query": "technology",
          "page": 2,
          "per_page": 5
        },
        "response": {
          "result": "{\"total\": 10156, \"total_pages\": 2032, \"current_page\": 2, \"per_page\": 5, \"results\": [{\"id\": \"Q1p7bh3SHj8\", \"description\": \"photo of outer space\", \"urls\": {\"raw\": \"https://images.unsplash.com/photo-1451187580459-43490279c0fa?ixid=M3w3NjQwNzV8MHwxfHNlYXJjaHw2fHx0ZWNobm9sb2d5fGVufDB8fHx8MTc1MTM2NjQ1OXww&ixlib=rb-4.1.0\", \"full\": \"https://images.unsplash.com/photo-1451187580459-43490279c0fa?crop=entropy&cs=srgb&fm=jpg&ixid=M3w3NjQwNzV8MHwxfHNlYXJjaHw2fHx0ZWNobm9sb2d5fGVufDB8fHx8MTc1MTM2NjQ1OXww&ixlib=rb-4.1.0&q=85\", \"regular\": \"https://images.unsplash.com/photo-1451187580459-43490279c0fa?crop=entropy&cs=tinysrgb&fit=max&fm=jpg&ixid=M3w3NjQwNzV8MHwxfHNlYXJjaHw2fHx0ZWNobm9sb2d5fGVufDB8fHx8MTc1MTM2NjQ1OXww&ixlib=rb-4.1.0&q=80&w=1080\", \"small\": \"https://images.unsplash.com/photo-1451187580459-434902...[截断]，共计6617字符，剩余5817字符"
        },
        "execution_time": 0.6505460739135742,
        "is_functional_test": true
      },
      {
        "case_name": "Search Ordered by Latest",
        "purpose": "验证排序方式为latest时是否返回最新的图片结果",
        "args": {
          "query": "sports",
          "order_by": "latest"
        },
        "response": {
          "result": "{\"total\": 10000, \"total_pages\": 1000, \"current_page\": 1, \"per_page\": 10, \"results\": [{\"id\": \"302YDrJh35c\", \"description\": \"A white sports car with racing stripes.\", \"urls\": {\"raw\": \"https://images.unsplash.com/photo-1751336620135-21dd3a074b63?ixid=M3w3NjQwNzV8MHwxfHNlYXJjaHwxfHxzcG9ydHN8ZW58MHx8Mnx8MTc1MTM2NjQ2MHww&ixlib=rb-4.1.0\", \"full\": \"https://images.unsplash.com/photo-1751336620135-21dd3a074b63?crop=entropy&cs=srgb&fm=jpg&ixid=M3w3NjQwNzV8MHwxfHNlYXJjaHwxfHxzcG9ydHN8ZW58MHx8Mnx8MTc1MTM2NjQ2MHww&ixlib=rb-4.1.0&q=85\", \"regular\": \"https://images.unsplash.com/photo-1751336620135-21dd3a074b63?crop=entropy&cs=tinysrgb&fit=max&fm=jpg&ixid=M3w3NjQwNzV8MHwxfHNlYXJjaHwxfHxzcG9ydHN8ZW58MHx8Mnx8MTc1MTM2NjQ2MHww&ixlib=rb-4.1.0&q=80&w=1080\", \"small\": \"https://images.unsplash.com/photo-175133662013...[截断]，共计12819字符，剩余12019字符"
        },
        "execution_time": 0.6739287376403809,
        "is_functional_test": true
      },
      {
        "case_name": "Color Filter Red",
        "purpose": "验证颜色过滤器red是否能正确筛选红色调的图片",
        "args": {
          "query": "flowers",
          "color": "red"
        },
        "response": {
          "result": "{\"total\": 386, \"total_pages\": 39, \"current_page\": 1, \"per_page\": 10, \"results\": [{\"id\": \"1IcBNpQI7VA\", \"description\": \"a bunch of red flowers that are blooming\", \"urls\": {\"raw\": \"https://images.unsplash.com/photo-1653130656266-8606dab389eb?ixid=M3w3NjQwNzV8MHwxfHNlYXJjaHwxfHxmbG93ZXJzfGVufDB8fHxyZWR8MTc1MTM2NjQ2MHww&ixlib=rb-4.1.0\", \"full\": \"https://images.unsplash.com/photo-1653130656266-8606dab389eb?crop=entropy&cs=srgb&fm=jpg&ixid=M3w3NjQwNzV8MHwxfHNlYXJjaHwxfHxmbG93ZXJzfGVufDB8fHxyZWR8MTc1MTM2NjQ2MHww&ixlib=rb-4.1.0&q=85\", \"regular\": \"https://images.unsplash.com/photo-1653130656266-8606dab389eb?crop=entropy&cs=tinysrgb&fit=max&fm=jpg&ixid=M3w3NjQwNzV8MHwxfHNlYXJjaHwxfHxmbG93ZXJzfGVufDB8fHxyZWR8MTc1MTM2NjQ2MHww&ixlib=rb-4.1.0&q=80&w=1080\", \"small\": \"https://images.unsplash.com/photo-165...[截断]，共计12838字符，剩余12038字符"
        },
        "execution_time": 0.7436590194702148,
        "is_functional_test": true
      },
      {
        "case_name": "Orientation Filter Landscape",
        "purpose": "验证横向方向（landscape）的图片筛选是否有效",
        "args": {
          "query": "mountains",
          "orientation": "landscape"
        },
        "response": {
          "result": "{\"total\": 10000, \"total_pages\": 1000, \"current_page\": 1, \"per_page\": 10, \"results\": [{\"id\": \"pVATCBKLH8w\", \"description\": \"On the road to the home of giants, Mt Aoraki National Park.\", \"urls\": {\"raw\": \"https://images.unsplash.com/photo-1494806812796-244fe51b774d?ixid=M3w3NjQwNzV8MHwxfHNlYXJjaHwxfHxtb3VudGFpbnN8ZW58MHwwfHx8MTc1MTM2NjQ2MXww&ixlib=rb-4.1.0\", \"full\": \"https://images.unsplash.com/photo-1494806812796-244fe51b774d?crop=entropy&cs=srgb&fm=jpg&ixid=M3w3NjQwNzV8MHwxfHNlYXJjaHwxfHxtb3VudGFpbnN8ZW58MHwwfHx8MTc1MTM2NjQ2MXww&ixlib=rb-4.1.0&q=85\", \"regular\": \"https://images.unsplash.com/photo-1494806812796-244fe51b774d?crop=entropy&cs=tinysrgb&fit=max&fm=jpg&ixid=M3w3NjQwNzV8MHwxfHNlYXJjaHwxfHxtb3VudGFpbnN8ZW58MHwwfHx8MTc1MTM2NjQ2MXww&ixlib=rb-4.1.0&q=80&w=1080\", \"small\": \"https://images...[截断]，共计13114字符，剩余12314字符"
        },
        "execution_time": 0.630443811416626,
        "is_functional_test": true
      },
      {
        "case_name": "Invalid Color Parameter",
        "purpose": "验证无效的颜色参数是否触发ValueError",
        "args": {
          "query": "cars",
          "color": "pink"
        },
        "response": {
          "error": "ToolException: Error executing tool search_photos: 搜索图片时发生错误: 颜色必须是以下之一：['red', 'orange', 'yellow', 'green', 'teal', 'blue', 'purple', 'magenta', 'black', 'white', 'gray']，但收到了: pink"
        },
        "execution_time": 0.02198934555053711,
        "is_functional_test": false
      },
      {
        "case_name": "PerPage Exceeds Maximum",
        "purpose": "验证每页数量超过最大值30时是否触发参数验证错误",
        "args": {
          "query": "animals",
          "per_page": 31
        },
        "response": {
          "error": "ToolException: Error executing tool search_photos: 搜索图片时发生错误: 每页结果数必须在1-30之间，但收到了: 31"
        },
        "execution_time": 0.014534473419189453,
        "is_functional_test": false
      },
      {
        "case_name": "Special Characters in Query",
        "purpose": "验证包含特殊字符的查询词是否能被正确处理",
        "args": {
          "query": "café & nature",
          "page": 1
        },
        "response": {
          "result": "{\"total\": 2768, \"total_pages\": 277, \"current_page\": 1, \"per_page\": 10, \"results\": [{\"id\": \"dPmikVwdPso\", \"description\": \"a sign on a metal pole\", \"urls\": {\"raw\": \"https://images.unsplash.com/photo-1658081177873-3f25b8875e6c?ixid=M3w3NjQwNzV8MHwxfHNlYXJjaHwxfHxjYWYlQzMlQTklMjAlMjYlMjBuYXR1cmV8ZW58MHx8fHwxNzUxMzY2NDYyfDA&ixlib=rb-4.1.0\", \"full\": \"https://images.unsplash.com/photo-1658081177873-3f25b8875e6c?crop=entropy&cs=srgb&fm=jpg&ixid=M3w3NjQwNzV8MHwxfHNlYXJjaHwxfHxjYWYlQzMlQTklMjAlMjYlMjBuYXR1cmV8ZW58MHx8fHwxNzUxMzY2NDYyfDA&ixlib=rb-4.1.0&q=85\", \"regular\": \"https://images.unsplash.com/photo-1658081177873-3f25b8875e6c?crop=entropy&cs=tinysrgb&fit=max&fm=jpg&ixid=M3w3NjQwNzV8MHwxfHNlYXJjaHwxfHxjYWYlQzMlQTklMjAlMjYlMjBuYXR1cmV8ZW58MHx8fHwxNzUxMzY2NDYyfDA&ixlib=rb-4.1.0&q=80&w=1080\", \"small...[截断]，共计13894字符，剩余13094字符"
        },
        "execution_time": 0.6953158378601074,
        "is_functional_test": true
      },
      {
        "case_name": "Long Query String",
        "purpose": "验证超长搜索关键词是否能被正确处理",
        "args": {
          "query": "this is a very long query string that exceeds normal length limits but should still be accepted if handled properly by the API endpoint"
        },
        "response": {
          "result": "{\"total\": 2066, \"total_pages\": 207, \"current_page\": 1, \"per_page\": 10, \"results\": [{\"id\": \"c9HSvTpSg_4\", \"description\": \"Barbwire [Neochrome] | Blender 3D\", \"urls\": {\"raw\": \"https://images.unsplash.com/photo-1739288435419-f15c7b8752e9?ixid=M3w3NjQwNzV8MHwxfHNlYXJjaHwxfHx0aGlzJTIwaXMlMjBhJTIwdmVyeSUyMGxvbmclMjBxdWVyeSUyMHN0cmluZyUyMHRoYXQlMjBleGNlZWRzJTIwbm9ybWFsJTIwbGVuZ3RoJTIwbGltaXRzJTIwYnV0JTIwc2hvdWxkJTIwc3RpbGwlMjBiZSUyMGFjY2VwdGVkJTIwaWYlMjBoYW5kbGVkJTIwcHJvcGVybHklMjBieSUyMHRoZSUyMEFQSSUyMGVuZHBvaW50fGVufDB8fHx8MTc1MTM2NjQ2M3ww&ixlib=rb-4.1.0\", \"full\": \"https://images.unsplash.com/photo-1739288435419-f15c7b8752e9?crop=entropy&cs=srgb&fm=jpg&ixid=M3w3NjQwNzV8MHwxfHNlYXJjaHwxfHx0aGlzJTIwaXMlMjBhJTIwdmVyeSUyMGxvbmclMjBxdWVyeSUyMHN0cmluZyUyMHRoYXQlMjBleGNlZWRzJTIwbm9ybWFsJTIwbGVuZ3RoJTI...[截断]，共计24253字符，剩余23453字符"
        },
        "execution_time": 0.8009665012359619,
        "is_functional_test": true
      },
      {
        "case_name": "XSS Attempt in Query",
        "purpose": "验证是否对查询参数中的潜在XSS攻击进行安全处理",
        "args": {
          "query": "<script>alert('xss')</script>"
        },
        "response": {
          "result": "{\"total\": 2400, \"total_pages\": 240, \"current_page\": 1, \"per_page\": 10, \"results\": [{\"id\": \"yPBgHCsKdWE\", \"description\": \"binary source code – html php java program source code\", \"urls\": {\"raw\": \"https://images.unsplash.com/photo-1617609277590-ec2d145ca13b?ixid=M3w3NjQwNzV8MHwxfHNlYXJjaHwxfHwlM0NzY3JpcHQlM0VhbGVydCUyOCUyN3hzcyUyNyUyOSUzQyUyRnNjcmlwdCUzRXxlbnwwfHx8fDE3NTEzNjEwODV8MA&ixlib=rb-4.1.0\", \"full\": \"https://images.unsplash.com/photo-1617609277590-ec2d145ca13b?crop=entropy&cs=srgb&fm=jpg&ixid=M3w3NjQwNzV8MHwxfHNlYXJjaHwxfHwlM0NzY3JpcHQlM0VhbGVydCUyOCUyN3hzcyUyNyUyOSUzQyUyRnNjcmlwdCUzRXxlbnwwfHx8fDE3NTEzNjEwODV8MA&ixlib=rb-4.1.0&q=85\", \"regular\": \"https://images.unsplash.com/photo-1617609277590-ec2d145ca13b?crop=entropy&cs=tinysrgb&fit=max&fm=jpg&ixid=M3w3NjQwNzV8MHwxfHNlYXJjaHwxfHwlM...[截断]，共计15479字符，剩余14679字符"
        },
        "execution_time": 0.4119575023651123,
        "is_functional_test": false
      },
      {
        "case_name": "Minimum Valid Page Number",
        "purpose": "验证最小合法页码1是否正常工作",
        "args": {
          "query": "architecture",
          "page": 1
        },
        "response": {
          "result": "{\"total\": 10000, \"total_pages\": 1000, \"current_page\": 1, \"per_page\": 10, \"results\": [{\"id\": \"Sc5RKXLBjGg\", \"description\": \"The folding exterior of Tuletornen creates an interesting mix of shadows and highlights.\", \"urls\": {\"raw\": \"https://images.unsplash.com/photo-1488972685288-c3fd157d7c7a?ixid=M3w3NjQwNzV8MHwxfHNlYXJjaHwxfHxhcmNoaXRlY3R1cmV8ZW58MHx8fHwxNzUxMzY2NDY0fDA&ixlib=rb-4.1.0\", \"full\": \"https://images.unsplash.com/photo-1488972685288-c3fd157d7c7a?crop=entropy&cs=srgb&fm=jpg&ixid=M3w3NjQwNzV8MHwxfHNlYXJjaHwxfHxhcmNoaXRlY3R1cmV8ZW58MHx8fHwxNzUxMzY2NDY0fDA&ixlib=rb-4.1.0&q=85\", \"regular\": \"https://images.unsplash.com/photo-1488972685288-c3fd157d7c7a?crop=entropy&cs=tinysrgb&fit=max&fm=jpg&ixid=M3w3NjQwNzV8MHwxfHNlYXJjaHwxfHxhcmNoaXRlY3R1cmV8ZW58MHx8fHwxNzUxMzY2NDY0fDA&ixlib=rb-4.1.0&...[截断]，共计13072字符，剩余12272字符"
        },
        "execution_time": 0.5676093101501465,
        "is_functional_test": true
      },
      {
        "case_name": "Maximum Valid PerPage Value",
        "purpose": "验证最大允许的每页结果数30是否正常工作",
        "args": {
          "query": "cities",
          "per_page": 30
        },
        "response": {
          "result": "{\"total\": 10000, \"total_pages\": 334, \"current_page\": 1, \"per_page\": 30, \"results\": [{\"id\": \"eojSqfK8Jwk\", \"description\": \"Financial District\", \"urls\": {\"raw\": \"https://images.unsplash.com/photo-1525095240410-9645dea911e4?ixid=M3w3NjQwNzV8MHwxfHNlYXJjaHwxfHxjaXRpZXN8ZW58MHx8fHwxNzUxMzY2NDY1fDA&ixlib=rb-4.1.0\", \"full\": \"https://images.unsplash.com/photo-1525095240410-9645dea911e4?crop=entropy&cs=srgb&fm=jpg&ixid=M3w3NjQwNzV8MHwxfHNlYXJjaHwxfHxjaXRpZXN8ZW58MHx8fHwxNzUxMzY2NDY1fDA&ixlib=rb-4.1.0&q=85\", \"regular\": \"https://images.unsplash.com/photo-1525095240410-9645dea911e4?crop=entropy&cs=tinysrgb&fit=max&fm=jpg&ixid=M3w3NjQwNzV8MHwxfHNlYXJjaHwxfHxjaXRpZXN8ZW58MHx8fHwxNzUxMzY2NDY1fDA&ixlib=rb-4.1.0&q=80&w=1080\", \"small\": \"https://images.unsplash.com/photo-1525095240410-9645dea911e4?crop=entro...[截断]，共计40023字符，剩余39223字符"
        },
        "execution_time": 0.9926495552062988,
        "is_functional_test": true
      }
    ]
  },
  "total_cases": 12
}